{
	"version": 0,
	"brandSetting": {
		"defaultSection": {
			"backgroundColour": "#000000",
			"backgroundImage": "https://i.stack.imgur.com/uD9js.png",
			"fontWeight": "bold",
			"fontColour": "#ffffff"
		},
		"navigationSection": {
			"backgroundColourMobile": ["#ffffff", "#ffffff"],
			"fontWeight": "normal",
			"fontColour": "#192f6a",
			"backgroundImage": "https://research.jcu.edu.au/tropwater/resources/JCU_Logo_RGB.jpg/image_view_fullscreen"
		},
		"headerBannerSection": {
			"backgroundColour": ["#4c669f", "#3b5998", "#192f6a"],
			"fontWeight": "bold",
			"fontColour": "#fff"
		},
		"mainHeadingsSection": {
			"fontWeight": "bold",
			"fontColour": "#ffffff"
		},
		"bodyCopySection": {
			"fontWeight": "bold",
			"fontColour": "#000"
		},
		"pageButtonSection": {
			"fontWeight": "normal",
			"default": {
				"fontColour": "#000",
				"buttonIcon": "",
				"backgroundColour": "#2e2e2e"
			},
			"tapped": {
				"fontColour": "#000",
				"buttonIcon": "",
				"backgroundColour": "#fff"
			}
		},
		"tabBarButtonSection": {
			"fontWeight": "bold",
			"default": {
				"fontColour": "#696969",
				"buttonIcon": "",
				"backgroundColour": ["#ffffff", "#ffffff", "#ffffff"]
			},
			"tapped": {
				"fontColour": "#000",
				"buttonIcon": "",
				"backgroundColour": ["#ffffff", "#ffffff"]
			}
		}
	}
}
