[{
	"section": "Campus Safety",
	"items": [{
		"title": "This is the....",
		"text": "This is the content you will see on mobile/website.",
		"button_type": "Text",
		"id": 1
	}, {
		"title": "Coming Up Class",
		"button_type": "Widget",
		"id": 2
	}, {
		"title": "Campus Map",
		"button_type": "Internal link",
		"internalLink": "Campus Map",
		"icon": "https://d3l077x3t9qdee.cloudfront.net/images/UAT/mobile/connexus/support/ic_phone.png",
		"id": 3
	}, {
		"title": "International student study",
		"button_type": "External link",
		"externalLink": "https://d3l077x3t9q......",
		"icon": "https://d3l077x3t9qdee.cloudfront.net/images/UAT/mobile/connexus/support/ic_phone.png",
		"id": 4
	}, {
		"title": "Call campus support(0000000)",
		"button_type": "Phone",
		"country_code": "61",
		"phone_number": "0000 0000 0000",
		"icon": "https://d3l077x3t9qdee.cloudfront.net/images/UAT/mobile/connexus/support/ic_phone.png",
		"id": 5
	}]
}]
